{
  "expo": {
    "name": "EA2 Base App",
    "slug": "ea2-base-app",
    "description": "An app for events",
    "version": "46.65.0",
    "owner": "cgitech",
    "orientation": "portrait",
    "icon": "./assets/variables/icon.png",
    "splash": {
      "image": "./assets/variables/launcher.png",
      "resizeMode": "cover"
    },
    "android": {
      "googleServicesFile": "./google-services.json",
      "package": "com.creativegroupinc.ea2.baseapp",
      "versionCode": 460466500,
      "config": {
        "googleMaps": {
          "apiKey": "AIzaSyB28TU_EDXmsLH7vnX8kfwIsvcrsnZ0np0"
        }
      }
    },
    "ios": {
      "googleServicesFile": "./GoogleService-Info.plist",
      "supportsTablet": true,
      "bundleIdentifier": "com.creativegroupinc.ea2.baseapp",
      "buildNumber": "46.65.0",
      "infoPlist": {
        "NSCameraUsageDescription": "You can choose take a photo to upload for your user profile avatar and/or activity feed posts. Your photos will never leave your device unless you explicitly choose to upload them.",
        "NSPhotoLibraryUsageDescription": "You can choose take a photo to upload for your user profile avatar and/or activity feed posts. Your photos will never leave your device unless you explicitly choose to upload them.",
        "NSPhotoLibraryAddUsageDescription": "You can choose take a photo to upload for your user profile avatar and/or activity feed posts. Your photos will never leave your device unless you explicitly choose to upload them.",
        "NSUserNotificationAlertStyle": "banner",
        "ITSAppUsesNonExemptEncryption": "NO",
        "UIBackgroundModes": [
          "remote-notification"
        ]
      },
      "config": {
        "googleMapsApiKey": "AIzaSyB28TU_EDXmsLH7vnX8kfwIsvcrsnZ0np0"
      }
    },
    "hooks": {
      "postPublish": [
        {
          "file": "sentry-expo/upload-sourcemaps",
          "config": {
            "organization": "creative-group-inc",
            "project": "ea2-base-app",
            "authToken": "6b892f6a2f584b9290db467a527fef32b3771f393b3144779efd454ce94dab96"
          }
        }
      ]
    },
    "plugins": [
      "sentry-expo",
      "expo-image-picker"
    ]
  }
}